What's your favorite upper bound? 
Think of a number in [1, 23]. But don't tell me. I will read your mind!

[1,3,5,7,9,11,13,15,17,19,21,23]
Is your number in this list? y/[n]? 
[2,3,6,7,10,11,14,15,18,19,22,23]
Is your number in this list? y/[n]? 
[4,5,6,7,12,13,14,15,20,21,22,23]
Is your number in this list? y/[n]? 
[8,9,10,11,12,13,14,15]
Is your number in this list? y/[n]? 
[16,17,18,19,20,21,22,23]
Is your number in this list? y/[n]? 
Your number is 3.
